[{
  "name": "B: Beispiele für  Karteitypen",
  "description": "Ziel ist ein Beispiel für alle 18 Karteitypen.",
  "date": "2019-03-06T18:49:04.765Z",
  "dateUpdated": "2019-04-01T09:09:50.633Z",
  "editors": [],
  "owner": "jCZ6oHcbZhJaKKodN",
  "visible": false,
  "ratings": true,
  "kind": "personal",
  "price": 0,
  "reviewed": false,
  "reviewer": "undefined",
  "request": false,
  "rating": 0,
  "raterCount": 0,
  "quantity": 1,
  "license": [],
  "userDeleted": false,
  "learningActive": false,
  "maxCards": 0,
  "daysBeforeReset": 0,
  "learningStart": "1970-01-01T00:00:00.000Z",
  "learningEnd": "1970-01-01T00:00:00.000Z",
  "registrationPeriod": "1970-01-01T00:00:00.000Z",
  "learningInterval": [],
  "wordcloud": false,
  "shuffled": false,
  "cardType": 8,
  "difficulty": 1,
  "noDifficulty": true,
  "originalAuthorName": {
    "title": "Dr.",
    "birthname": "Quibeldey-Cirkel",
    "givenname": "Klaus"
  },
  "workload": {
    "bonus": {
      "count": 0
    },
    "normal": {
      "count": 0
    }
  }
}, {
  "subject": "Karteitypen am Beispiel",
  "front": "Karteityp | Titel der Beispielkarte\n----------|----------\nLerneinheit | <q>Test-Pyramide</q>\nGlossar | <q>Induktionsbeweis</q>\nQuiz | <q>Die Millionenfrage</q>\nLiteratur | <q>Linux-Standardwerk</q>\nVokabelkartei | <q>Navigiere mit der Tab-Taste zu DeepL</q>\nPrüfung |  <q>Vererbung</q>\nZitatensammlung |  <q>Über das Coden & Testen</q>\nMitschrift |  <q>SWT-Mitschrift vom 08.05.2018</q>\nAnweisungssatz |  <q>Keine Angst vor der Shell</q>\nVortrag |  <q>The Making of 🍅cards</q>\n[Beispiele, die im Folgenden gezeigt werden]\n\n",
  "centerTextElement": [
    true,
    true,
    true,
    true,
    true,
    true
  ],
  "alignType": [
    0,
    0,
    0,
    0,
    0,
    0
  ],
  "date": "2019-03-06T16:40:33.538Z",
  "learningGoalLevel": 0,
  "backgroundStyle": 1,
  "learningIndex": "0",
  "learningUnit": "0",
  "dateUpdated": "2019-04-01T09:09:50.622Z",
  "originalAuthorName": {
    "title": "Dr.",
    "birthname": "Quibeldey-Cirkel",
    "givenname": "Klaus"
  }
}]